{
    "swagger": "2.0",
    "info": {
        "description": "This is a sample server celler server.",
        "title": "Swagger Example API",
        "contact": {
            "name": "API Support",
            "url": "http://www.swagger.io/support",
            "email": "support@swagger.io"
        },
        "version": "1.0"
    },
    "host": "localhost:8080",
    "basePath": "/",
    "paths": {
        "/boards": {
            "post": {
                "description": "Создать доску текущего пользователя по его ID",
                "consumes": [
                    "application/json"
                ],
                "produces": [
                    "application/json"
                ],
                "tags": [
                    "boards"
                ],
                "summary": "Создать доску пользователя",
                "parameters": [
                    {
                        "description": "Board",
                        "name": "user",
                        "in": "body",
                        "required": true,
                        "schema": {
                            "$ref": "#/definitions/dto.CreateBoardDTO"
                        }
                    }
                ],
                "responses": {
                    "200": {
                        "description": "OK",
                        "schema": {
                            "$ref": "#/definitions/dto.NewBoardDTO"
                        }
                    }
                }
            }
        },
        "/boards/mine": {
            "get": {
                "description": "Доски текущего пользователя по его ID",
                "consumes": [
                    "application/json"
                ],
                "produces": [
                    "application/json"
                ],
                "tags": [
                    "my-boards"
                ],
                "summary": "Пользовательские доски c фильтрацией",
                "parameters": [
                    {
                        "enum": [
                            "Idea",
                            "ToDo",
                            "InProgress",
                            "Done",
                            "Archived"
                        ],
                        "type": "string",
                        "description": "Текущий статус",
                        "name": "current_status",
                        "in": "query"
                    }
                ],
                "responses": {
                    "200": {
                        "description": "OK",
                        "schema": {
                            "type": "array",
                            "items": {
                                "$ref": "#/definitions/dto.BoardsDTO"
                            }
                        }
                    },
                    "204": {
                        "description": "No Content",
                        "schema": {
                            "type": "string"
                        }
                    }
                }
            },
            "patch": {
                "description": "Изменяет доску текущего пользователя по его ID",
                "consumes": [
                    "application/json"
                ],
                "produces": [
                    "application/json"
                ],
                "tags": [
                    "my-boards"
                ],
                "summary": "Изменить доску пользователя",
                "parameters": [
                    {
                        "description": "Board",
                        "name": "user",
                        "in": "body",
                        "required": true,
                        "schema": {
                            "$ref": "#/definitions/dto.UpdateBoardDTO"
                        }
                    }
                ],
                "responses": {
                    "200": {
                        "description": "OK",
                        "schema": {
                            "$ref": "#/definitions/dto.NewBoardDTO"
                        }
                    }
                }
            }
        },
        "/boards/mine/{id}": {
            "delete": {
                "description": "Удаляет доску пользователя по его ID",
                "tags": [
                    "my-boards"
                ],
                "summary": "Удалить доску",
                "parameters": [
                    {
                        "type": "integer",
                        "description": "Board ID",
                        "name": "id",
                        "in": "path",
                        "required": true
                    }
                ],
                "responses": {
                    "204": {
                        "description": "No content"
                    }
                }
            }
        },
        "/boards/{id}": {
            "get": {
                "description": "Получает данные доски пользователя по ID",
                "consumes": [
                    "application/json"
                ],
                "produces": [
                    "application/json"
                ],
                "tags": [
                    "boards"
                ],
                "summary": "Доска пользователя по ID",
                "parameters": [
                    {
                        "type": "integer",
                        "description": "Board ID",
                        "name": "id",
                        "in": "path",
                        "required": true
                    }
                ],
                "responses": {
                    "200": {
                        "description": "OK",
                        "schema": {
                            "$ref": "#/definitions/dto.BoardDTO"
                        }
                    },
                    "204": {
                        "description": "No Content",
                        "schema": {
                            "type": "string"
                        }
                    }
                }
            }
        },
        "/login": {
            "post": {
                "description": "Аудентификация пользователя по email и password",
                "consumes": [
                    "application/json"
                ],
                "produces": [
                    "application/json"
                ],
                "tags": [
                    "auth"
                ],
                "summary": "Аутентификация пользователя",
                "parameters": [
                    {
                        "description": "Данные пользователя",
                        "name": "auth",
                        "in": "body",
                        "required": true,
                        "schema": {
                            "$ref": "#/definitions/dto.UserLoginDetails"
                        }
                    }
                ],
                "responses": {
                    "200": {
                        "description": "OK",
                        "schema": {
                            "$ref": "#/definitions/dto.UserDTO"
                        }
                    }
                }
            }
        },
        "/logout": {
            "post": {
                "description": "Выход пользователя",
                "consumes": [
                    "application/x-www-form-urlencoded"
                ],
                "produces": [
                    "application/json"
                ],
                "tags": [
                    "auth"
                ],
                "summary": "Logout user",
                "responses": {
                    "200": {
                        "description": "OK",
                        "schema": {
                            "type": "object",
                            "additionalProperties": true
                        }
                    },
                    "400": {
                        "description": "Bad Request",
                        "schema": {
                            "type": "object",
                            "additionalProperties": true
                        }
                    }
                }
            }
        },
        "/master_classes": {
            "get": {
                "description": "Возвращет список мастер-классов с фильтрацией",
                "consumes": [
                    "application/json"
                ],
                "produces": [
                    "application/json"
                ],
                "tags": [
                    "master-classes"
                ],
                "summary": "Список  мастер-классов",
                "parameters": [
                    {
                        "type": "integer",
                        "description": "ID автора",
                        "name": "author_id",
                        "in": "query"
                    },
                    {
                        "enum": [
                            "Crocheting",
                            "KnittingWithNeedles",
                            "Macrame",
                            "Embroidery",
                            "Sewing",
                            "Painting",
                            "Felting",
                            "Modeling"
                        ],
                        "type": "string",
                        "description": "Тип рукоделия",
                        "name": "type_needlework",
                        "in": "query"
                    },
                    {
                        "type": "string",
                        "description": "Название мастер-класса",
                        "name": "name",
                        "in": "query"
                    },
                    {
                        "type": "string",
                        "description": "Используемые материалы",
                        "name": "materials",
                        "in": "query"
                    },
                    {
                        "type": "boolean",
                        "description": "Активный?",
                        "name": "is_active",
                        "in": "query"
                    }
                ],
                "responses": {
                    "200": {
                        "description": "OK",
                        "schema": {
                            "type": "array",
                            "items": {
                                "type": "array",
                                "items": {
                                    "$ref": "#/definitions/dto.MasterClassesDTO"
                                }
                            }
                        }
                    },
                    "204": {
                        "description": "No Content",
                        "schema": {
                            "type": "string"
                        }
                    }
                }
            },
            "post": {
                "description": "Возвращет данные о созданном мастер-классе",
                "consumes": [
                    "application/json"
                ],
                "produces": [
                    "application/json"
                ],
                "tags": [
                    "master-classes"
                ],
                "summary": "Создать мастер-класс",
                "parameters": [
                    {
                        "description": "Данные мастер-класса",
                        "name": "master-class",
                        "in": "body",
                        "required": true,
                        "schema": {
                            "$ref": "#/definitions/dto.CreateMasterClassDTO"
                        }
                    }
                ],
                "responses": {
                    "200": {
                        "description": "OK",
                        "schema": {
                            "type": "array",
                            "items": {
                                "$ref": "#/definitions/dto.NewMasterClassesDTO"
                            }
                        }
                    }
                }
            }
        },
        "/master_classes/mine": {
            "get": {
                "description": "Возвращет список своих мастер-классов с фильтрацией",
                "consumes": [
                    "application/json"
                ],
                "produces": [
                    "application/json"
                ],
                "tags": [
                    "my-master-classes"
                ],
                "summary": "Список своих мастер-классов",
                "parameters": [
                    {
                        "enum": [
                            "Crocheting",
                            "KnittingWithNeedles",
                            "Macrame",
                            "Embroidery",
                            "Sewing",
                            "Painting",
                            "Felting",
                            "Modeling"
                        ],
                        "type": "string",
                        "description": "Тип рукоделия",
                        "name": "type_needlework",
                        "in": "query"
                    },
                    {
                        "type": "string",
                        "description": "Название мастер-класса",
                        "name": "name",
                        "in": "query"
                    },
                    {
                        "type": "string",
                        "description": "Используемые материалы",
                        "name": "materials",
                        "in": "query"
                    },
                    {
                        "type": "boolean",
                        "description": "Активный?",
                        "name": "is_active",
                        "in": "query"
                    }
                ],
                "responses": {
                    "200": {
                        "description": "OK",
                        "schema": {
                            "type": "array",
                            "items": {
                                "type": "array",
                                "items": {
                                    "$ref": "#/definitions/dto.MasterClassesDTO"
                                }
                            }
                        }
                    },
                    "204": {
                        "description": "No Content",
                        "schema": {
                            "type": "string"
                        }
                    }
                }
            },
            "patch": {
                "description": "Изменяет данные мастер-класса текущего пользователя по его ID",
                "consumes": [
                    "application/json"
                ],
                "produces": [
                    "application/json"
                ],
                "tags": [
                    "my-master-classes"
                ],
                "summary": "Изменить мастер-класс",
                "parameters": [
                    {
                        "description": "Master-class",
                        "name": "user",
                        "in": "body",
                        "required": true,
                        "schema": {
                            "$ref": "#/definitions/dto.UpdateMasterClassDTO"
                        }
                    }
                ],
                "responses": {
                    "200": {
                        "description": "OK",
                        "schema": {
                            "$ref": "#/definitions/dto.NewMasterClassesDTO"
                        }
                    }
                }
            }
        },
        "/master_classes/mine/{id}": {
            "delete": {
                "description": "Удаляет мастер-класс пользователя по его ID",
                "tags": [
                    "my-master-classes"
                ],
                "summary": "Удалить мастер-класс",
                "parameters": [
                    {
                        "type": "integer",
                        "description": "Master-class ID",
                        "name": "id",
                        "in": "path",
                        "required": true
                    }
                ],
                "responses": {
                    "204": {
                        "description": "No content"
                    }
                }
            }
        },
        "/master_classes/{id}": {
            "get": {
                "description": "Возвращет мастер-класс по ID",
                "consumes": [
                    "application/json"
                ],
                "produces": [
                    "application/json"
                ],
                "tags": [
                    "master-classes"
                ],
                "summary": "Мастер-класс по ID",
                "parameters": [
                    {
                        "type": "integer",
                        "description": "Master-class ID",
                        "name": "id",
                        "in": "path",
                        "required": true
                    }
                ],
                "responses": {
                    "200": {
                        "description": "OK",
                        "schema": {
                            "type": "array",
                            "items": {
                                "$ref": "#/definitions/dto.MasterClassDTO"
                            }
                        }
                    },
                    "204": {
                        "description": "No Content",
                        "schema": {
                            "type": "string"
                        }
                    }
                }
            }
        },
        "/password": {
            "patch": {
                "description": "Изменяет пароль пользователя",
                "consumes": [
                    "application/json"
                ],
                "produces": [
                    "application/json"
                ],
                "tags": [
                    "auth"
                ],
                "summary": "Сменить пароль",
                "parameters": [
                    {
                        "description": "User",
                        "name": "user",
                        "in": "body",
                        "required": true,
                        "schema": {
                            "$ref": "#/definitions/dto.UpdatePasswordDTO"
                        }
                    }
                ],
                "responses": {
                    "200": {
                        "description": "OK",
                        "schema": {
                            "$ref": "#/definitions/dto.NewUserDTO"
                        }
                    }
                }
            }
        },
        "/register": {
            "post": {
                "description": "Создает нового пользователя",
                "consumes": [
                    "application/json"
                ],
                "produces": [
                    "application/json"
                ],
                "tags": [
                    "auth"
                ],
                "summary": "Создать пользователя",
                "parameters": [
                    {
                        "description": "Данные нового пользователя",
                        "name": "user",
                        "in": "body",
                        "required": true,
                        "schema": {
                            "$ref": "#/definitions/dto.CreateUserDTO"
                        }
                    }
                ],
                "responses": {
                    "201": {
                        "description": "Created",
                        "schema": {
                            "$ref": "#/definitions/dto.UserCreationResponseDTO"
                        }
                    }
                }
            }
        },
        "/tex/{text}": {
            "get": {
                "description": "Получает текст от gRPC сервиса",
                "consumes": [
                    "application/json"
                ],
                "produces": [
                    "application/json"
                ],
                "tags": [
                    "текст"
                ],
                "summary": "Получение текста",
                "parameters": [
                    {
                        "type": "string",
                        "description": "Text для получения",
                        "name": "text",
                        "in": "path",
                        "required": true
                    }
                ],
                "responses": {}
            }
        },
        "/user/myself": {
            "get": {
                "description": "Получение данных о себе",
                "consumes": [
                    "application/json"
                ],
                "produces": [
                    "application/json"
                ],
                "tags": [
                    "user"
                ],
                "summary": "Получение данных о себе",
                "responses": {
                    "200": {
                        "description": "OK",
                        "schema": {
                            "$ref": "#/definitions/dto.UserDTO"
                        }
                    }
                }
            },
            "patch": {
                "description": "Изменяет данные пользователя по ID",
                "consumes": [
                    "application/json"
                ],
                "produces": [
                    "application/json"
                ],
                "tags": [
                    "user"
                ],
                "summary": "Обновить пользователя",
                "parameters": [
                    {
                        "description": "User",
                        "name": "user",
                        "in": "body",
                        "required": true,
                        "schema": {
                            "$ref": "#/definitions/dto.UpdateMyselfDTO"
                        }
                    }
                ],
                "responses": {
                    "200": {
                        "description": "OK",
                        "schema": {
                            "$ref": "#/definitions/dto.NewUserDTO"
                        }
                    }
                }
            }
        },
        "/users": {
            "get": {
                "description": "Возвращает список всех пользователей в системе",
                "consumes": [
                    "application/json"
                ],
                "produces": [
                    "application/json"
                ],
                "tags": [
                    "users"
                ],
                "summary": "Получить список всех пользователей",
                "parameters": [
                    {
                        "type": "string",
                        "description": "Фамилия",
                        "name": "LastName",
                        "in": "query"
                    },
                    {
                        "type": "string",
                        "description": "Имя",
                        "name": "FirstName",
                        "in": "query"
                    },
                    {
                        "type": "string",
                        "description": "Отчество",
                        "name": "MiddleName",
                        "in": "query"
                    },
                    {
                        "type": "string",
                        "description": "Email",
                        "name": "Email",
                        "in": "query"
                    },
                    {
                        "enum": [
                            "Admin",
                            "ActiveUser",
                            "Master",
                            "Blocked"
                        ],
                        "type": "string",
                        "description": "Роль",
                        "name": "Role",
                        "in": "query"
                    }
                ],
                "responses": {
                    "200": {
                        "description": "OK",
                        "schema": {
                            "type": "array",
                            "items": {
                                "type": "array",
                                "items": {
                                    "$ref": "#/definitions/dto.UsersDTO"
                                }
                            }
                        }
                    },
                    "204": {
                        "description": "No Content",
                        "schema": {
                            "type": "string"
                        }
                    }
                }
            }
        },
        "/users/user_role": {
            "patch": {
                "description": "Обновляет роль пользователя по ID",
                "consumes": [
                    "application/json"
                ],
                "produces": [
                    "application/json"
                ],
                "tags": [
                    "users"
                ],
                "summary": "Обновить роль пользователя",
                "parameters": [
                    {
                        "type": "integer",
                        "description": "User ID",
                        "name": "id",
                        "in": "query",
                        "required": true
                    },
                    {
                        "enum": [
                            "Admin",
                            "ActiveUser",
                            "Master",
                            "Blocked"
                        ],
                        "type": "string",
                        "description": "Роль пользователя",
                        "name": "role",
                        "in": "query",
                        "required": true
                    }
                ],
                "responses": {
                    "200": {
                        "description": "OK",
                        "schema": {
                            "$ref": "#/definitions/dto.NewUserDTO"
                        }
                    }
                }
            }
        },
        "/users/{id}": {
            "get": {
                "description": "Получение пользователя по ID",
                "consumes": [
                    "application/json"
                ],
                "produces": [
                    "application/json"
                ],
                "tags": [
                    "users"
                ],
                "summary": "Пользователь по ID",
                "parameters": [
                    {
                        "type": "integer",
                        "description": "User ID",
                        "name": "id",
                        "in": "path",
                        "required": true
                    }
                ],
                "responses": {
                    "200": {
                        "description": "OK",
                        "schema": {
                            "$ref": "#/definitions/dto.UserDTO"
                        }
                    },
                    "204": {
                        "description": "No Content",
                        "schema": {
                            "type": "string"
                        }
                    }
                }
            },
            "delete": {
                "description": "Удаляет пользователя по ID",
                "tags": [
                    "users"
                ],
                "summary": "Удалить пользователя",
                "parameters": [
                    {
                        "type": "integer",
                        "description": "User ID",
                        "name": "id",
                        "in": "path",
                        "required": true
                    }
                ],
                "responses": {
                    "204": {
                        "description": "No content"
                    }
                }
            }
        }
    },
    "definitions": {
        "dto.BoardDTO": {
            "type": "object",
            "properties": {
                "createdAt": {
                    "type": "string"
                },
                "current_status": {
                    "$ref": "#/definitions/enum.CurrentStatus"
                },
                "id": {
                    "type": "integer"
                },
                "master_class": {
                    "$ref": "#/definitions/dto.MasterClassNoDateDTO"
                },
                "note": {
                    "type": "string"
                },
                "updatedAt": {
                    "type": "string"
                },
                "user_id": {
                    "type": "integer"
                }
            }
        },
        "dto.BoardsDTO": {
            "type": "object",
            "properties": {
                "current_status": {
                    "$ref": "#/definitions/enum.CurrentStatus"
                },
                "id": {
                    "type": "integer"
                },
                "master_class": {
                    "type": "integer"
                },
                "user_id": {
                    "type": "integer"
                }
            }
        },
        "dto.CreateBoardDTO": {
            "type": "object",
            "properties": {
                "current_status": {
                    "$ref": "#/definitions/enum.CurrentStatus"
                },
                "master_class_id": {
                    "type": "integer"
                },
                "note": {
                    "type": "string"
                }
            }
        },
        "dto.CreateMasterClassDTO": {
            "type": "object",
            "properties": {
                "description": {
                    "type": "string"
                },
                "detailInfo": {
                    "type": "string"
                },
                "materials": {
                    "type": "string"
                },
                "name": {
                    "type": "string"
                },
                "typeNeedlework": {
                    "$ref": "#/definitions/enum.TypeNeedlework"
                }
            }
        },
        "dto.CreateUserDTO": {
            "type": "object",
            "properties": {
                "email": {
                    "type": "string"
                },
                "firstName": {
                    "type": "string"
                },
                "lastName": {
                    "type": "string"
                },
                "middleName": {
                    "type": "string"
                },
                "password": {
                    "type": "string"
                }
            }
        },
        "dto.MasterClassDTO": {
            "type": "object",
            "properties": {
                "author": {
                    "$ref": "#/definitions/dto.UsersWithoutRoleDTO"
                },
                "createdAt": {
                    "type": "string"
                },
                "description": {
                    "type": "string"
                },
                "detailInfo": {
                    "type": "string"
                },
                "id": {
                    "type": "integer"
                },
                "isActive": {
                    "type": "boolean"
                },
                "materials": {
                    "type": "string"
                },
                "name": {
                    "type": "string"
                },
                "typeNeedlework": {
                    "$ref": "#/definitions/enum.TypeNeedlework"
                },
                "updatedAt": {
                    "type": "string"
                }
            }
        },
        "dto.MasterClassNoDateDTO": {
            "type": "object",
            "properties": {
                "author_id": {
                    "type": "integer"
                },
                "description": {
                    "type": "string"
                },
                "detailInfo": {
                    "type": "string"
                },
                "id": {
                    "type": "integer"
                },
                "isActive": {
                    "type": "boolean"
                },
                "materials": {
                    "type": "string"
                },
                "name": {
                    "type": "string"
                },
                "typeNeedlework": {
                    "$ref": "#/definitions/enum.TypeNeedlework"
                }
            }
        },
        "dto.MasterClassesDTO": {
            "type": "object",
            "properties": {
                "author_id": {
                    "type": "integer"
                },
                "description": {
                    "type": "string"
                },
                "id": {
                    "type": "integer"
                },
                "isActive": {
                    "type": "boolean"
                },
                "name": {
                    "type": "string"
                },
                "typeNeedlework": {
                    "$ref": "#/definitions/enum.TypeNeedlework"
                }
            }
        },
        "dto.NewBoardDTO": {
            "type": "object",
            "properties": {
                "createdAt": {
                    "type": "string"
                },
                "current_status": {
                    "$ref": "#/definitions/enum.CurrentStatus"
                },
                "id": {
                    "type": "integer"
                },
                "master_class": {
                    "type": "integer"
                },
                "note": {
                    "type": "string"
                },
                "updatedAt": {
                    "type": "string"
                },
                "user_id": {
                    "type": "integer"
                }
            }
        },
        "dto.NewMasterClassesDTO": {
            "type": "object",
            "properties": {
                "authorId": {
                    "type": "integer"
                },
                "createdAt": {
                    "type": "string"
                },
                "description": {
                    "type": "string"
                },
                "detailInfo": {
                    "type": "string"
                },
                "id": {
                    "type": "integer"
                },
                "isActive": {
                    "type": "boolean"
                },
                "materials": {
                    "type": "string"
                },
                "name": {
                    "type": "string"
                },
                "typeNeedlework": {
                    "$ref": "#/definitions/enum.TypeNeedlework"
                },
                "updatedAt": {
                    "type": "string"
                }
            }
        },
        "dto.NewUserDTO": {
            "type": "object",
            "properties": {
                "createdAt": {
                    "type": "string"
                },
                "email": {
                    "type": "string"
                },
                "firstName": {
                    "type": "string"
                },
                "id": {
                    "type": "integer"
                },
                "lastName": {
                    "type": "string"
                },
                "middleName": {
                    "type": "string"
                },
                "password": {
                    "type": "string"
                },
                "role": {
                    "$ref": "#/definitions/enum.RolesUser"
                },
                "updatedAt": {
                    "type": "string"
                }
            }
        },
        "dto.UpdateBoardDTO": {
            "type": "object",
            "properties": {
                "current_status": {
                    "$ref": "#/definitions/enum.CurrentStatus"
                },
                "id": {
                    "type": "integer"
                },
                "note": {
                    "type": "string"
                }
            }
        },
        "dto.UpdateMasterClassDTO": {
            "type": "object",
            "properties": {
                "description": {
                    "type": "string"
                },
                "detailInfo": {
                    "type": "string"
                },
                "id": {
                    "type": "integer"
                },
                "isActive": {
                    "type": "boolean"
                },
                "materials": {
                    "type": "string"
                },
                "name": {
                    "type": "string"
                },
                "typeNeedlework": {
                    "$ref": "#/definitions/enum.TypeNeedlework"
                }
            }
        },
        "dto.UpdateMyselfDTO": {
            "type": "object",
            "properties": {
                "email": {
                    "type": "string"
                },
                "firstName": {
                    "type": "string"
                },
                "lastName": {
                    "type": "string"
                },
                "middleName": {
                    "type": "string"
                },
                "password": {
                    "type": "string"
                }
            }
        },
        "dto.UpdatePasswordDTO": {
            "type": "object",
            "properties": {
                "email": {
                    "type": "string"
                },
                "firstName": {
                    "type": "string"
                },
                "lastName": {
                    "type": "string"
                },
                "password": {
                    "type": "string"
                }
            }
        },
        "dto.UserCreationResponseDTO": {
            "type": "object",
            "properties": {
                "accessToken": {
                    "type": "string"
                },
                "message": {
                    "type": "string"
                },
                "refreshToken": {
                    "type": "string"
                },
                "user": {
                    "$ref": "#/definitions/dto.NewUserDTO"
                }
            }
        },
        "dto.UserDTO": {
            "type": "object",
            "properties": {
                "createdAt": {
                    "type": "string"
                },
                "email": {
                    "type": "string"
                },
                "firstName": {
                    "type": "string"
                },
                "id": {
                    "type": "integer"
                },
                "lastName": {
                    "type": "string"
                },
                "middleName": {
                    "type": "string"
                },
                "role": {
                    "$ref": "#/definitions/enum.RolesUser"
                },
                "updatedAt": {
                    "type": "string"
                }
            }
        },
        "dto.UserLoginDetails": {
            "type": "object",
            "properties": {
                "email": {
                    "type": "string"
                },
                "password": {
                    "type": "string"
                }
            }
        },
        "dto.UsersDTO": {
            "type": "object",
            "properties": {
                "email": {
                    "type": "string"
                },
                "firstName": {
                    "type": "string"
                },
                "id": {
                    "type": "integer"
                },
                "lastName": {
                    "type": "string"
                },
                "middleName": {
                    "type": "string"
                },
                "role": {
                    "$ref": "#/definitions/enum.RolesUser"
                }
            }
        },
        "dto.UsersWithoutRoleDTO": {
            "type": "object",
            "properties": {
                "email": {
                    "type": "string"
                },
                "firstName": {
                    "type": "string"
                },
                "id": {
                    "type": "integer"
                },
                "lastName": {
                    "type": "string"
                },
                "middleName": {
                    "type": "string"
                }
            }
        },
        "enum.CurrentStatus": {
            "type": "string",
            "enum": [
                "Idea",
                "ToDo",
                "InProgress",
                "Done",
                "Archived"
            ],
            "x-enum-comments": {
                "Archived": "архив",
                "Done": "готово",
                "Idea": "идея",
                "InProgress": "в процессе",
                "ToDo": "сделать"
            },
            "x-enum-varnames": [
                "Idea",
                "ToDo",
                "InProgress",
                "Done",
                "Archived"
            ]
        },
        "enum.RolesUser": {
            "type": "string",
            "enum": [
                "Admin",
                "ActiveUser",
                "Master",
                "Blocked"
            ],
            "x-enum-varnames": [
                "Admin",
                "ActiveUser",
                "Master",
                "Blocked"
            ]
        },
        "enum.TypeNeedlework": {
            "type": "string",
            "enum": [
                "Crocheting",
                "KnittingWithNeedles",
                "Macrame",
                "Embroidery",
                "Sewing",
                "Painting",
                "Felting",
                "Modeling"
            ],
            "x-enum-comments": {
                "Crocheting": "вязание крючком",
                "Embroidery": "вышивание",
                "Felting": "валяние",
                "KnittingWithNeedles": "вязание спицами",
                "Macrame": "макраме",
                "Modeling": "лепка",
                "Painting": "рисование",
                "Sewing": "шитьё"
            },
            "x-enum-varnames": [
                "Crocheting",
                "KnittingWithNeedles",
                "Macrame",
                "Embroidery",
                "Sewing",
                "Painting",
                "Felting",
                "Modeling"
            ]
        }
    }
}